{
    "credentials": "testtest",
    "operator": "c6f799cbceb2f800b2ae1a33b41e892f76642157cc9b019b55a1e1b3acb4a8ba",
    "signed": "b14fe57aeb978dec34de849e2af34fcb5bae0a0da5344b94c9c5b6184cd00cdb9bf13e636d4eca7f0288bdd5c2c1747f8f3847e6ab5ade200f400b1a66639c04"
}